%YAML 1.1
%TAG !u! tag:unity3d.com,2011:
--- !u!1045 &1
EditorBuildSettings:
  m_ObjectHideFlags: 0
  serializedVersion: 2
  m_Scenes:
  - enabled: 0
    path: Assets/#CONTENT/Scenes/MainScene.unity
    guid: 9fc0d4010bbf28b4594072e72b8655ab
  - enabled: 0
    path: Assets/#CONTENT/Scenes/TestScene.unity
    guid: 855c5f2ee7e1c4e48b2c6f9aa10f70c0
  - enabled: 1
    path: Assets/#CONTENT/Scenes/DebugScene.unity
    guid: bd2eb0dd8a680eb48a03cf4f160b1e03
  m_configObjects: {}
